[
    {
      "errno": "0",
      "type": "ip",
      "free_start_ip_addr": "0a0a0a98",
      "free_end_ip_addr": "0a0a0a98",
      "free_scope_size": "0",
      "ip_id": "811221",
      "site_is_template": "0",
      "site_name": "Labo PE",
      "tree_level": "0",
      "tree_path": "Labo PE#",
      "tree_id_path": "#6#",
      "ip_addr": "0a0a0a98",
      "hostaddr": "10.10.10.152",
      "name": "test-tdd.labo-pe.intra",
      "mac_addr": "EIP:611b6df6eb2d78.75390438",
      "ip_class_name": "",
      "parent_subnet_id": "12247",
      "parent_subnet_name": "ORL_PKS",
      "parent_subnet_size": "65536",
      "parent_vlsm_subnet_id": "0",
      "parent_subnet_class_name": "LABOPE/DC",
      "parent_subnet_start_ip_addr": "0ad10000",
      "parent_subnet_start_hostaddr": "10.10.0.0",
      "parent_subnet_end_ip_addr": "0ad1ffff",
      "parent_subnet_end_hostaddr": "10.10.255.255",
      "subnet_name": "ESXI_ADMIN_ENV",
      "pool_name": "ENV_POOL",
      "site_id": "6",
      "subnet_id": "12553",
      "subnet_start_ip_addr": "0a d1 10 00",
      "subnet_end_ip_addr": "0a0a0aff",
      "subnet_size": "256",
      "subnet_is_terminal": "1",
      "lock_network_broadcast": "1",
      "pool_class_name": "",
      "pool_id": "9525",
      "pool_read_only": "0",
      "pool_row_enabled": "1",
      "iplnetdev_name": "#",
      "iplnetdev_id": "0",
      "iplport_name": "",
      "iplport_slotnumber": "",
      "iplport_portnumber": "",
      "iplport_ifvlan": "",
      "hostiface_name": "#",
      "hostiface_id": "0",
      "hostdev_name": "#",
      "hostdev_id": "0",
      "dhcphost_id": "0",
      "dhcplease_id": "0",
      "last_seen": "0",
      "dhcplease_end_time": "0",
      "site_description": "",
      "site_class_name": "",
      "subnet_class_name": "LABOPE/SUBNET_DC",
      "pool_size": "244",
      "pool_start_ip_addr": "0a0a0a0b",
      "pool_end_ip_addr": "0a0a0afe",
      "ip_alias": "",
      "multistatus": "",
      "tag_pool_dhcprange": "0",
      "tag_container_dhcpstatic": "0",
      "ip_class_parameters": "",
      "ip_class_parameters_properties": "",
      "ip_class_parameters_inheritance_source": "",
      "pool_class_parameters": "",
      "pool_class_parameters_properties": "",
      "site_class_parameters": "",
      "site_class_parameters_properties": "",
      "subnet_class_parameters": "",
      "subnet_class_parameters_properties": ""
    }
  ]